…
    ##    Min. 1st Qu.  Median    Mean 3rd Qu.    Max. 
    ##  -13636     765    1079    1190    1481   17898

``` r
applications2$app_proc_time = proc_t

applications3 = applications2[applications2$app_proc_time >0 , ]

edges_filt = edges %>% inner_join(applications3[c('application_number')] , by = 'application_number') 

edges_filt
```

    ## # A tibble: 32,794 x 4
    ##    application_number advice_date ego_examiner_id alter_examiner_id
    ##    <chr>              <date>                <dbl>             <dbl>
    ##  1 09402488           2008-11-17            84356             66266
    ##  2 09402488           2008-11-17            84356             63519
    ##  3 09402488           2008-11-17            84356             98531
    ##  4 09445135           2008-08-21            92953             71313
    ##  5 09445135           2008-08-21            92953             93865
    ##  6 09445135           2008-08-21            92953             91818
    ##  7 09479304           2008-12-15            61767             69277
    ##  8 09479304           2008-12-15            61767             92446
    ##  9 09479304           2008-12-15            61767             66805
    ## 10 09479304           2008-12-15            61767             70919
    ## # ... with 32,784 more rows
…
