…
    ## The following objects are masked from 'package:stats':
    ## 
    ##     filter, lag

    ## The following objects are masked from 'package:base':
    ## 
    ##     intersect, setdiff, setequal, union

``` r
data %>% group_by(Company) %>% count() %>% arrange(desc(n))
```

    ## # A tibble: 792 x 2
    ## # Groups:   Company [792]
    ##    Company                                                   n
    ##    <chr>                                                 <int>
    ##  1 "Belcorp"                                                64
    ##  2 "McGill University - Desautels Faculty of Management"    23
    ##  3 "Banco de Crédito BCP"                                   19
    ##  4 "Interbank"                                              19
    ##  5 ""                                                       18
    ##  6 "Scotiabank"                                             16
    ##  7 "Entel Perú"                                             15
    ##  8 "Rappi"                                                  13
    ##  9 "Alicorp"                                                12
    ## 10 "EY"                                                     12
    ## # ... with 782 more rows
…
